0.999999,2.3929910334831E-07
0.991189,0.001999518808515
0.973009,0.005686222258315
0.960402,0.008165681355112
0.945505,0.010836350536692
0.928386,0.013743218826532
0.909105,0.016836159309779
0.887774,0.020097029560509
0.864469,0.023550574124854
0.839327,0.027222945362692
0.812464,0.031129027733546
0.784032,0.03520057362842
0.754179,0.039516169911871
0.723085,0.043956179642789
0.690895,0.04855991921073
0.657818,0.053273451555846
0.624014,0.058090540498412
0.589703,0.062988021857224
0.555064,0.067973779732092
0.520305,0.073007357010624
0.485627,0.078033503671583
0.451242,0.083043893961592
0.417351,0.087967693097307
0.384161,0.092741174688299
0.351885,0.097304099952962
0.320743,0.101588953057185
0.29093,0.10550013621841
0.262692,0.108944768427675
0.236269,0.111784244266454
0.211962,0.11375053847012
0.190065,0.114213663741378
0.169782,0.112347937744137
0.15022,0.108566594886994
0.131515,0.103769907001808
0.113747,0.098003069926697
0.097028,0.091355755553885
0.081427,0.083935482457177
0.067001,0.076006533225748
0.053853,0.067699022014562
0.042013,0.059229693964116
0.031535,0.050411647298477
0.022485,0.041372065862527
0.014903,0.032557582992803
0.008823,0.024206872314807
0.004278,0.016139709184994
0.001315,0.00877856520732
0,0
0.000641,-0.00479328212814
0.003744,-0.010092297202284
0.009317,-0.015148950573482
0.016852,-0.019675061885277
0.026156,-0.023529915876852
0.037148,-0.026465690284066
0.050349,-0.02812951772328
0.066134,-0.028864790647293
0.084314,-0.029007459660046
0.104783,-0.028570634942417
0.127428,-0.027668383784415
0.152142,-0.026352201727965
0.178825,-0.024648820933274
0.207351,-0.022624734555816
0.237571,-0.020346386013875
0.269333,-0.017893228453025
0.30251,-0.015311692135601
0.336888,-0.012685998943929
0.372308,-0.010044768687243
0.408554,-0.00745911112652
0.445456,-0.00496251883595
0.482784,-0.002673146461048
0.520319,-0.000552379527343
0.557841,0.001322440132918
0.595155,0.002910350444717
0.632003,0.004246489609357
0.668183,0.00525211294741
0.703456,0.005945671708503
0.737634,0.006296806722329
0.770477,0.006217244756727
0.801785,0.006010571382739
0.831385,0.005547370260889
0.859062,0.005329780500949
0.884651,0.004882672060126
0.908004,0.004223762579084
0.928974,0.003449972985222
0.947394,0.002626881207569
0.963198,0.001753491882387
0.986498,0.000559615626445
0.999232,7.2615627583928E-05
