345.567624,-34.549741
346.541510,-34.521778
348.489285,-34.465909
351.410922,-34.381213
354.332543,-34.295957
357.254178,-34.211216
360.175815,-34.126526
362.610504,-34.055654
364.558262,-33.999201
366.506027,-33.942990
368.453798,-33.886962
370.401568,-33.830914
371.862400,-33.789064
373.323244,-33.747706
374.784109,-33.707162
376.244999,-33.667621
378.192890,-33.616406
380.627824,-33.555137
383.549844,-33.485600
385.984914,-33.429793
387.932976,-33.385387
389.881038,-33.340937
391.342083,-33.307586
392.316116,-33.285441
269.393585,-36.807837
270.980428,-36.756948
274.154165,-36.656866
278.914838,-36.508913
283.675534,-36.361729
288.436254,-36.215317
293.196982,-36.069176
297.957734,-35.923825
302.718539,-35.780199
307.479398,-35.638297
312.240291,-35.497553
316.207728,-35.381160
319.381706,-35.289040
322.555707,-35.197709
325.729739,-35.107447
328.903782,-35.017558
332.077829,-34.927794
335.251888,-34.838465
338.425978,-34.750253
341.600072,-34.662195
343.980620,-34.595330
345.567624,-34.549741
262.107562,-37.046350
263.321872,-37.005764
265.750516,-36.925316
268.179221,-36.846770
269.393585,-36.807837
143.704010,-41.105469
145.398533,-41.046493
148.787646,-40.930584
153.024135,-40.788617
156.413358,-40.676007
159.802602,-40.564017
162.344567,-40.480974
164.039228,-40.426160
95.822603,-42.981710
96.820126,-42.942370
98.815144,-42.863009
102.805113,-42.702625
106.795012,-42.540515
110.784893,-42.377958
113.777298,-42.255908
116.769697,-42.133692
119.762100,-42.011579
122.754537,-41.890342
125.747037,-41.770775
128.739617,-41.653306
131.732288,-41.538264
134.725069,-41.426115
137.717961,-41.316898
140.710948,-41.210180
142.706316,-41.140193
143.704010,-41.105469
46.788777,-42.202855
47.311573,-42.259246
48.096314,-42.338253
49.143194,-42.437906
49.666748,-42.486567
49.928540,-42.510753
49.928540,-42.510753
50.405134,-42.554775
51.120063,-42.620051
52.073351,-42.706094
53.026677,-42.791335
54.218446,-42.895631
55.648885,-43.014334
57.079746,-43.124404
58.511119,-43.224041
59.943068,-43.311918
61.375612,-43.387641
62.808738,-43.451500
64.242386,-43.504689
65.676475,-43.548871
67.111000,-43.584178
68.545971,-43.610371
69.981406,-43.627066
71.178000,-43.632923
72.135489,-43.633077
72.853736,-43.631045
73.571982,-43.626990
74.529554,-43.619074
75.726402,-43.604820
77.162453,-43.581909
79.077003,-43.544765
80.991301,-43.498671
82.905380,-43.444856
84.819332,-43.386476
87.211570,-43.306391
90.082042,-43.202701
92.952374,-43.094029
94.865868,-43.019442
95.822603,-42.981710
10.588148,-27.366552
10.732265,-27.519367
11.022032,-27.822885
11.462326,-28.270401
11.909054,-28.709067
12.362815,-29.138062
12.824042,-29.556788
13.293042,-29.964822
13.690516,-30.295718
14.012568,-30.554832
14.337255,-30.810324
14.747671,-31.123420
15.246618,-31.490267
15.751431,-31.849045
16.261656,-32.200381
16.776912,-32.544797
17.296857,-32.882763
17.821148,-33.214753
18.349498,-33.541160
18.882207,-33.861572
19.419505,-34.175672
19.961636,-34.483125
20.417659,-34.733496
20.785173,-34.930082
21.062203,-35.075613
21.340646,-35.219163
21.620642,-35.360716
21.901547,-35.499868
22.277384,-35.682134
22.749550,-35.903930
23.319721,-36.161007
23.893201,-36.409665
24.469653,-36.650766
25.048693,-36.885284
25.629907,-37.114270
26.115700,-37.301411
26.504971,-37.449506
26.894592,-37.596707
27.382290,-37.779004
27.968666,-37.994863
28.556312,-38.207492
29.145412,-38.416420
29.736202,-38.621054
30.230162,-38.787421
30.626467,-38.917626
30.924303,-39.013730
31.222795,-39.108180
31.521617,-39.200756
31.820819,-39.291492
32.220236,-39.410047
32.720403,-39.553774
33.321984,-39.719348
33.924885,-39.878324
34.730422,-40.081956
35.740285,-40.321801
36.956206,-40.589204
38.175526,-40.839630
39.193929,-41.036809
40.009798,-41.188827
40.622236,-41.300159
41.235196,-41.408883
41.848677,-41.515005
42.462820,-41.617818
43.077787,-41.716518
43.693696,-41.810511
44.310630,-41.899382
44.928626,-41.982946
45.547675,-42.061253
46.167718,-42.134592
46.581674,-42.180517
46.788777,-42.202855
739.511805,124.949721
737.685373,125.201294
734.031964,125.700435
728.551139,126.443916
723.070550,127.189125
717.589741,127.932732
712.108233,128.671169
704.798333,129.646469
697.486124,130.604308
690.172556,131.551870
684.686885,132.258637
679.200850,132.962561
673.714478,133.663833
668.227767,134.362445
662.740695,135.058223
657.253292,135.751408
653.594783,136.211644
651.765453,136.441168
487.554770,154.043072
486.195486,154.149975
484.156467,154.309012
481.437526,154.517582
479.398175,154.671982
477.358645,154.823891
475.318944,154.973405
473.279091,155.120793
470.559101,155.314714
467.158782,155.552497
463.758136,155.785705
461.037494,155.970521
458.316772,156.154217
454.915675,156.381188
450.833989,156.648031
446.751814,156.906923
442.669057,157.156409
438.585737,157.397046
434.501875,157.628225
430.417469,157.848879
426.332492,158.058787
423.608846,158.192513
422.246949,158.257962
308.531371,159.184350
307.638484,159.146014
306.299349,159.085113
304.514162,158.998240
303.175406,158.930758
301.836755,158.861470
300.498177,158.790900
299.159699,158.718601
297.821361,158.643869
296.483196,158.566155
295.145220,158.485149
293.807431,158.400893
292.469782,158.314234
291.132235,158.225785
289.348961,158.105742
288.011657,158.013088
287.120222,157.949575
287.120222,157.949575
286.310600,157.891892
285.096292,157.803931
283.477603,157.682102
282.263799,157.588253
281.050213,157.491869
279.836831,157.393094
278.623625,157.292269
277.410572,157.189658
276.197667,157.085321
274.984925,156.979085
273.772379,156.870557
272.560072,156.759246
271.348041,156.644709
270.136270,156.527140
268.924684,156.407423
267.713222,156.286215
266.501879,156.163816
265.290703,156.039985
264.079748,155.914203
262.869043,155.786230
261.658616,155.655806
260.448480,155.522835
259.238611,155.387521
258.028996,155.249973
256.819655,155.110013
255.610611,154.967448
254.401844,154.822449
253.193283,154.675644
251.984838,154.527825
250.373635,154.330222
249.165260,154.181777
248.359723,154.082411
1523.367767,10.881767
1521.490346,11.061351
1517.735644,11.421997
1512.104108,11.968465
1506.473102,12.520549
1500.842564,13.077612
1495.212372,13.638354
1489.582321,14.200587
1483.952115,14.761175
1478.321579,15.318264
1473.629062,15.778214
1469.874724,16.142724
1467.058783,16.414113
1464.242611,16.683059
1461.426143,16.948856
1458.609307,17.210737
1455.792016,17.467792
1452.974241,17.719707
1450.155989,17.966553
1447.337281,18.208559
1443.578453,18.525381
1438.879023,18.911903
1435.118945,19.215452
1433.238905,19.367208
130.638459,127.155333
130.041349,126.942120
128.848843,126.511619
127.065899,125.852037
125.289106,125.177827
122.928128,124.259663
120.578511,123.314482
118.238340,122.346836
116.487508,121.610882
114.740628,120.865530
112.997410,120.111468
111.257616,119.349264
109.521296,118.578797
107.788948,117.798884
106.061463,117.007406
104.339915,116.201810
103.196797,115.653849
102.626442,115.377007
224.382431,150.720624
223.872955,150.637377
222.854225,150.469634
221.326903,150.213677
219.800617,149.951899
218.275592,149.683046
216.751909,149.406652
215.229369,149.123835
213.707546,148.836992
212.693157,148.644870
212.185929,148.548999
1732.392384,-0.543580
1745.537058,-0.000000
102.626442,115.377007
102.010247,115.077914
100.781246,114.473677
98.946170,113.552267
97.117742,112.618976
95.294614,111.676213
93.476117,110.725178
91.662434,109.765539
89.854774,108.795137
88.054321,107.811857
86.262393,106.813343
84.480197,105.797440
83.003903,104.935004
81.828396,104.235177
80.656491,103.528915
79.197921,102.634809
77.746664,101.727634
76.589557,100.994928
75.723612,100.442028
75.003538,99.978521
74.428405,99.606043
73.853929,99.232458
73.137399,98.763569
72.280089,98.197670
71.425527,97.628294
70.290185,96.863961
68.879233,95.898119
67.200534,94.720803
65.537286,93.523905
63.890242,92.306467
62.259952,91.067794
60.646580,89.807680
59.050187,88.526045
57.470624,87.223078
55.907284,85.899549
54.359374,84.556464
52.825810,83.195197
51.305730,81.816838
49.798488,80.422207
48.801864,79.482056
48.305498,79.009514
181.565374,141.992990
181.028088,141.862641
179.953839,141.600729
178.343641,141.203455
176.734770,140.801210
175.127383,140.393400
173.521535,139.979824
171.917144,139.560786
170.314124,139.136612
168.712357,138.707741
167.111708,138.274678
165.511999,137.838093
163.913097,137.398482
162.314956,136.956017
160.717584,136.510675
159.121036,136.062236
157.525457,135.610198
155.931013,135.153781
154.337977,134.692557
152.746560,134.226305
151.156702,133.755098
149.568291,133.279322
147.981159,132.799496
146.395315,132.315601
144.810800,131.827500
142.700032,131.170631
140.592446,130.503697
138.488789,129.824335
136.913251,129.307842
135.340120,128.783737
133.246153,128.073727
131.680097,127.527245
130.638459,127.155333
1745.537058,-0.000000
0.000000,0.000000
446.543498,-32.002397
1595.343714,4.365858
48.305498,79.009514
47.884455,78.608684
47.047606,77.801939
45.806287,76.578275
44.577925,75.342033
43.361510,74.094192
42.155611,72.836142
40.959033,71.569043
39.771417,70.293244
38.985869,69.436695
38.594734,69.006829
212.185929,148.548999
211.544793,148.427943
210.583206,148.245774
209.301098,148.002833
208.339559,147.820422
207.378131,147.637441
206.416927,147.453333
205.456093,147.267347
204.495720,147.079032
203.535852,146.888156
202.576508,146.694626
201.617663,146.498574
200.659289,146.300137
199.701397,146.099268
198.424785,145.828468
197.148966,145.553938
195.873486,145.277994
194.916980,145.070570
193.960596,144.862612
193.004406,144.653802
192.048534,144.443590
190.774647,144.160631
189.183525,143.801488
187.594176,143.434548
186.323756,143.136336
185.053987,142.835260
183.467823,142.454305
182.199519,142.146781
181.565374,141.992990
395.098752,-33.221986
396.170533,-33.197287
398.314072,-33.146912
400.993444,-33.081820
403.136921,-33.028908
404.744525,-32.989055
406.352127,-32.949118
407.959724,-32.908977
409.567316,-32.868658
411.174921,-32.828858
412.782564,-32.790617
414.390250,-32.754128
415.997963,-32.718788
418.141582,-32.671801
420.285182,-32.623912
422.428805,-32.577090
424.036535,-32.542555
425.644262,-32.507875
427.251972,-32.472384
428.859652,-32.435623
430.467297,-32.397223
432.074905,-32.357229
433.682489,-32.316283
435.022147,-32.282354
436.093893,-32.256011
437.165657,-32.230367
438.505391,-32.199540
440.113098,-32.163592
441.720802,-32.127528
443.328473,-32.090116
444.936055,-32.049095
446.007694,-32.018395
446.543498,-32.002397
164.039228,-40.426160
165.060846,-40.393116
167.104088,-40.327236
170.168969,-40.228944
173.233863,-40.131073
176.298765,-40.033424
179.363651,-39.935285
182.428490,-39.835745
185.493269,-39.734384
188.557997,-39.631453
191.622693,-39.527587
194.687371,-39.423135
197.752029,-39.318125
201.838206,-39.177043
206.945857,-38.998664
213.074962,-38.782467
219.204031,-38.565257
224.311559,-38.383441
228.397543,-38.236869
232.483498,-38.089493
237.590905,-37.904260
243.719856,-37.683724
249.848922,-37.466452
254.956616,-37.289340
259.042836,-37.149494
261.085979,-37.080500
262.107562,-37.046350
248.359723,154.082411
247.859040,154.020650
246.858013,153.894517
245.357061,153.700782
243.856339,153.505276
242.355553,153.310254
240.854769,153.115224
239.354007,152.920020
237.853324,152.724231
236.603101,152.558336
235.603307,152.422809
234.603862,152.285011
233.355210,152.108408
232.107373,151.926399
231.109590,151.777560
230.112126,151.626605
228.865795,151.434596
227.370782,151.200312
225.876234,150.962938
224.880281,150.801960
224.382431,150.720624
392.316116,-33.285441
392.779889,-33.274898
393.707436,-33.253811
394.634982,-33.232674
395.098752,-33.221986
1599.794066,4.137668
1598.995403,4.174730
1597.398382,4.252798
1595.003855,4.382912
1592.610355,4.526329
1589.420347,4.734725
1586.232197,4.967174
1583.045453,5.217838
1580.655986,5.413497
1578.267039,5.615879
1575.878595,5.824781
1573.888639,6.004228
1572.296927,6.151066
1570.705378,6.300005
1568.716212,6.489663
1566.329531,6.721499
1563.943109,6.956260
1561.556856,7.192653
1559.170640,7.429445
1556.784380,7.665791
1554.398036,7.901278
1552.011600,8.135834
1549.625113,8.369866
1547.238608,8.603716
1544.852055,8.837087
1542.465387,9.069269
1540.078537,9.299543
1537.691510,9.527945
1535.304322,9.754655
1532.121228,10.055089
1528.142146,10.428378
1524.959123,10.729546
1523.367767,10.881767
778.248429,119.500314
776.634569,119.728558
773.406810,120.184755
768.565094,120.868501
763.723314,121.551795
758.881410,122.234212
754.846379,122.802095
751.618352,123.256391
749.197318,123.597018
746.776233,123.937277
743.547960,124.389820
741.126434,124.726948
739.511805,124.949721
1605.440709,3.904318
1603.558185,3.974602
1601.675885,4.050309
1599.794066,4.137668
969.316119,90.442298
967.328061,90.759529
963.351677,91.392278
957.386397,92.336910
951.420494,93.277570
943.465252,94.527282
935.509191,95.771772
927.552834,97.014370
919.596425,98.256635
909.651034,99.810235
897.716196,101.672200
885.780459,103.528459
875.832864,105.067837
867.873830,106.293065
859.914080,107.513609
849.962849,109.029189
840.009104,110.528282
832.044409,111.716495
826.070064,112.601974
820.094901,113.481809
814.118928,114.356057
808.142162,115.224823
802.164639,116.088368
796.186446,116.947290
790.207673,117.802205
784.228362,118.653408
780.241798,119.218411
778.248429,119.500314
1669.812163,2.785422
1669.141737,2.804019
1667.800863,2.840058
1665.789479,2.890109
1663.778017,2.935836
1661.766469,2.976859
1659.754832,3.013037
1657.743117,3.044927
1655.731336,3.073191
1653.719496,3.098232
1651.707603,3.120417
1649.695673,3.140403
1647.683739,3.159670
1645.671808,3.179215
1643.659882,3.199393
1641.647961,3.220061
1639.636040,3.240716
1637.624115,3.260868
1635.612179,3.280066
1633.600236,3.298363
1631.588289,3.316549
1629.576365,3.335779
1627.564498,3.357563
1625.552721,3.383477
1623.541058,3.414605
1621.529509,3.450845
1619.518064,3.491837
1616.836265,3.552347
1614.154653,3.621314
1611.473243,3.699447
1609.462290,3.762786
1607.451440,3.830839
1606.110941,3.879297
1605.440709,3.904318
1006.591707,84.372096
1005.039179,84.628839
1001.934018,85.141675
997.275942,85.908881
992.617479,86.673708
987.958540,87.435609
983.299013,88.193901
978.638766,88.947773
973.977809,89.697285
970.870077,90.194333
969.316119,90.442298
1677.013067,2.557980
1676.413036,2.578336
1675.212956,2.618461
1673.412784,2.677044
1671.612541,2.733371
1670.412305,2.768577
1669.812163,2.785422
1732.392384,-0.543580
1732.104276,-0.522016
1731.528106,-0.478259
1730.375939,-0.388459
1729.223972,-0.295975
1728.072039,-0.203045
1727.208065,-0.133677
1726.344035,-0.065055
1725.479941,0.002719
1724.615800,0.069866
1723.463568,0.158811
1722.311294,0.247191
1721.158961,0.334783
1720.294661,0.399816
1719.430286,0.463837
1718.277650,0.547398
1716.836598,0.648422
1715.106922,0.764084
1713.376837,0.874502
1711.646476,0.979574
1709.915855,1.079715
1708.185017,1.175710
1706.453998,1.268258
1704.722822,1.357808
1702.991506,1.444692
1701.260077,1.529408
1699.528565,1.612561
1697.797011,1.694894
1696.065423,1.776582
1694.333786,1.857336
1692.602103,1.936903
1690.293117,2.041181
1687.984000,2.142222
1685.674670,2.238076
1683.942558,2.307164
1682.210331,2.373423
1680.478002,2.437207
1678.745581,2.498720
1677.590578,2.538382
1677.013067,2.557980
651.765453,136.441168
650.876045,136.552762
649.097175,136.775500
646.428865,137.109576
643.760592,137.443946
641.092269,137.777923
638.423769,138.110466
634.865454,138.551315
631.306648,138.988207
627.747470,139.422104
625.077904,139.746044
622.408150,140.068397
619.738196,140.389080
617.068052,140.708166
614.397795,141.026319
611.727485,141.344017
608.167024,141.767216
604.606474,142.189680
601.045541,142.608919
598.374617,142.921353
595.703442,143.231575
593.032074,143.540099
590.360553,143.847267
587.688890,144.153183
585.017069,144.457714
582.345052,144.760511
579.672816,145.061373
577.000351,145.360220
574.327662,145.657096
571.654793,145.952376
568.981774,146.246335
567.199650,146.441334
566.308553,146.538518
545.161462,148.776813
542.763710,149.023067
537.967634,149.509678
531.970902,150.101083
527.172546,150.564221
523.573259,150.906227
519.973436,151.242701
516.373128,151.574253
512.772415,151.901370
509.171266,152.223323
505.569642,152.539742
501.967596,152.851251
498.965570,153.107080
496.563739,153.309300
494.161757,153.509756
491.158949,153.756473
488.756252,153.948580
487.554770,154.043072
422.246949,158.257962
421.021253,158.316860
418.569746,158.431979
414.892153,158.596779
411.214204,158.753237
407.535852,158.900008
403.856996,159.035562
400.177768,159.159501
396.498227,159.272056
393.431679,159.356632
390.978288,159.418928
388.524802,159.477808
386.071170,159.532074
383.617476,159.581994
381.777172,159.617004
379.936831,159.649301
378.096451,159.678814
376.256036,159.705759
373.802107,159.738586
371.348116,159.766973
368.894074,159.791597
367.053524,159.808761
365.212960,159.824945
363.985908,159.834983
363.372378,159.839724
1247.474622,42.666398
1244.964073,43.093086
1239.943280,43.948215
1232.412818,45.235079
1224.882969,46.525462
1217.353709,47.819224
1209.825036,49.116353
1202.296960,50.416908
1194.769492,51.720953
1187.242618,53.028405
1179.716374,54.339474
1173.445094,55.435413
1168.428510,56.314696
1163.412252,57.195844
1157.142546,58.300816
1149.619886,59.632451
1142.098128,60.969261
1134.577034,62.309879
1127.056237,63.652200
1119.535347,64.993991
1113.267488,66.109583
1108.252703,66.999221
1103.237525,67.886614
1096.967781,68.991457
1089.442741,70.309593
1081.916258,71.619507
1074.388234,72.920622
1066.858777,74.213611
1059.328083,75.499406
1051.796384,76.779199
1044.263862,78.054119
1037.986227,79.113385
1032.963901,79.959511
1029.197086,80.593681
1025.430185,81.227350
1020.407426,82.070901
1014.128377,83.121780
1009.104144,83.956590
1006.591707,84.372096
566.308553,146.538518
565.427731,146.634679
563.666027,146.826434
561.023231,147.111798
558.380174,147.394695
555.736864,147.675202
553.093326,147.953561
549.568336,148.322128
546.924299,148.595767
545.161462,148.776813
1318.691351,31.222168
1317.201572,31.422651
1314.223247,31.831281
1309.759499,32.467502
1305.299376,33.126276
1300.842584,33.805777
1296.388636,34.502982
1291.936950,35.214259
1287.487118,35.937074
1283.038703,36.668708
1279.332548,37.283741
1276.367987,37.778024
1273.403632,38.273594
1269.698565,38.895393
1265.253070,39.645201
1260.808106,40.398307
1256.363532,41.153843
1251.919137,41.910493
1248.956153,42.414593
1247.474622,42.666398
363.372378,159.839724
362.229691,159.848539
360.515660,159.861630
358.230284,159.877983
356.516252,159.888892
354.802217,159.897492
353.088181,159.903201
351.659814,159.904849
350.517119,159.903822
349.374422,159.901141
347.946050,159.894894
346.231999,159.884073
344.517948,159.872073
342.803898,159.861905
341.089851,159.853565
339.375792,159.846224
337.661736,159.838721
335.947693,159.829820
334.233671,159.818753
332.519680,159.804638
330.805727,159.786594
329.091820,159.763874
327.377961,159.736312
325.664145,159.704109
323.950379,159.667744
322.236744,159.627606
320.523214,159.583891
318.809789,159.536771
317.096462,159.486464
315.383220,159.433348
313.670059,159.377597
311.956997,159.318611
310.244070,159.255205
309.102244,159.208860
308.531371,159.184350
1433.238905,19.367208
1432.042972,19.463303
1430.249120,19.608011
1427.857534,19.803525
1425.466112,20.000973
1422.477108,20.251020
1418.890658,20.555277
1415.304490,20.862888
1410.523258,21.276850
1404.547280,21.801149
1397.377542,22.445193
1390.209464,23.106559
1383.043268,23.787548
1375.879157,24.490253
1369.910902,25.095028
1365.137449,25.590779
1361.557924,25.968672
1357.979195,26.353011
1354.401402,26.745048
1350.824696,27.145998
1347.249231,27.557129
1344.270839,27.909269
1341.888896,28.197299
1340.102844,28.416652
1338.317203,28.639372
1335.936834,28.940319
1332.962191,29.323206
1329.393626,29.790940
1324.636520,30.422613
1321.069405,30.902236
1318.691351,31.222168
38.594734,69.006829
38.188343,68.559706
37.376193,67.664919
36.161971,66.319322
35.155239,65.193620
34.353979,64.289536
33.555835,63.382790
32.564451,62.243985
31.384873,60.868811
30.215263,59.485126
29.055277,58.093226
27.904401,56.693548
26.762398,55.286289
25.629314,53.871442
24.505432,52.448640
23.392000,51.018346
22.289087,49.580356
21.378685,48.375706
20.655397,47.408318
19.935331,46.438583
19.041553,45.221821
17.980809,43.753119
17.108147,42.520974
16.417728,41.529642
15.904021,40.783150
15.394594,40.033541
14.889557,39.280728
14.472478,38.650648
14.141131,38.144847
13.811496,37.638086
13.402725,37.002830
12.917604,36.237534
12.438065,35.469154
11.806412,34.440372
11.031568,33.146257
10.275488,31.841771
9.681280,30.792293
9.240784,30.002332
8.877864,29.341732
8.589946,28.811915
8.303592,28.281234
7.948803,27.616139
7.529206,26.814626
7.116714,26.009187
6.712116,25.199384
6.315979,24.384905
5.799497,23.292465
5.425484,22.465757
5.181857,21.911459
5.181857,21.911459
4.960362,21.407531
4.527400,20.397059
3.909278,18.873184
3.324615,17.340586
2.776467,15.798466
2.268740,14.245807
1.804232,12.681878
1.385955,11.105896
1.017192,9.517002
0.701941,7.914156
0.485218,6.566460
0.340230,5.480900
0.261641,4.799289
0.206110,4.252086
0.168166,3.840719
0.133960,3.428376
0.108602,3.083936
0.090221,2.807889
0.077395,2.600599
0.065532,2.393074
0.054634,2.185240
0.044726,1.977517
0.032833,1.700704
0.020439,1.354968
0.009514,0.940534
0.000207,0.388553
-0.001580,-0.300304
0.011975,-1.125149
0.041151,-1.948218
0.085833,-2.769525
0.145887,-3.589084
0.221072,-4.406924
0.311482,-5.223034
0.417470,-6.037373
0.539432,-6.849897
0.677864,-7.660549
0.833344,-8.469263
0.977666,-9.141515
1.102328,-9.678270
1.200515,-10.080303
1.303487,-10.481793
1.411300,-10.882731
1.505105,-11.216400
1.582485,-11.483061
1.631819,-11.649633
1.671848,-11.782783
1.712212,-11.915737
1.763305,-12.081619
1.825619,-12.280174
1.910022,-12.544255
2.017959,-12.873140
2.151261,-13.265913
2.288232,-13.656852
2.475611,-14.175728
2.718498,-14.819992
3.023179,-15.586500
3.340697,-16.346590
3.671130,-17.100223
4.130108,-18.095866
4.618843,-19.076633
5.141021,-20.040677
5.550058,-20.755010
5.976995,-21.460393
6.422081,-22.156701
6.808064,-22.729419
7.126064,-23.182987
7.369176,-23.520856
7.616888,-23.856431
7.827094,-24.134168
7.997532,-24.355265
8.126275,-24.520272
8.255940,-24.684497
8.430033,-24.902425
8.649883,-25.172920
8.917176,-25.494534
9.187833,-25.813262
9.553046,-26.234511
10.017414,-26.754337
10.396696,-27.163516
10.588148,-27.366552
